827428 952437
346592 493480
75929 824067
407826 819834
892659 62676
810657 99717
335878 369224
82935 279211
876418 310511
577465 586648
88483 737144
707829 239921
258759 282182
832744 609760
215974 651966
168196 859536
823124 236993
970075 584880
424324 768310
56072 174376
485295 131032
160054 202985
887697 612789
452639 352695
323678 680457
236267 497879
31120 439239
708853 890303
39951 523506
75266 517489
781384 622063
349009 385567
517673 844635
114623 951155
157672 103625
309634 683209
486058 326082
233133 830294
93988 907188
884644 929783
567025 9925
81855 481456
81854 767145
417554 344941
83215 887497
696068 814903
933718 106212
256762 853983
147396 984099
58912 793347
779923 321727
715281 419070
972194 647391
320154 161796
168076 222643
246723 661846
419943 105218
163716 872785
127395 672981
788801 366910
195174 629019
219334 703356
514064 889082
583174 580704
860823 999578
162527 880935
203956 869525
602144 82117
72099 643182
244092 880254
869060 108607
37662 841837
988556 227321
643136 850204
637672 850457
946064 146571
202881 429113
309719 620730
972982 555954
4358 589944
131508 96946
952934 71081
896759 514342
841521 44027
476493 102592
540567 148053
856672 22138
877191 948439
474340 203762
941007 737431
214249 273647
46123 35316
417298 494351
287197 117858
736104 177239
242219 935683
564 997812
964340 347444
599277 751730
426399 170793
270760 903973
316598 613118
13437 846389
898118 646971
987184 874792
831907 753962
821227 157713
543938 551912
346902 919581
337084 413495
988582 741105
853406 419169
153148 978871
57313 740212
105358 902715
304675 5753
823513 802038
834736 841854
659844 273726
402247 912542
282010 797212
814873 613086
221208 220349
387312 159850
397024 261577
336390 357823
411318 410185
143215 739766
745645 248182
195247 597948
791878 882896
836059 361985
634542 414374
114562 566673
604740 956533
136476 884397
26986 104247
553753 512373
64267 293973
16032 766650
365214 21347
567527 223148
783629 936957
594955 157114
492781 929789
845901 976634
861501 807856
257993 876559
464440 295797
368610 280496
824928 532288
11651 526534
629834 849751
557867 988856
191600 15258
75882 743193
251088 24525
743201 434245
701458 988792
93951 711336
737442 411703
473386 997070
385666 189690
897990 391177
149929 818844
998220 280827
995172 411920
714158 616921
452065 463477
422604 947168
875855 932681
957065 154115
989029 452077
578861 327284
91694 26586
340279 854930
771050 810167
327148 704775
292475 141200
487073 543662
449329 475778
583810 741656
349036 883509
414791 808422
345259 922335
815477 536777
382640 965748
357674 499728
199797 217746
717682 378107
226945 91796
819079 476888
205753 257621
22344 84189
489447 244952
891797 584634
280547 859364
621705 617037
456046 821262
371141 750084
755809 106269
352844 940365
285860 85593
773620 988717
489993 268016
931256 459228
968713 333667
39190 218475
7525 400108
793975 445165
697150 931578
57446 155681
33492 674496
584136 251310
100382 104769
366510 147526
5843 939510
292149 96734
731081 430628
328242 54026
974392 494307
556852 510307
587224 687273
510772 839858
